209642 418002 449
267915 678923 509
734876 355302 509
512588 314316 470
459058 529688 470
142810 592316 470
75478 670494 509
250214 193445 443
45088 803211 509
712431 511765 509
556940 274925 470
121503 635080 509
757930 735425 424
662181 843399 525
652984 305907 509
822000 2893 509
943758 287241 525
296285 824508 509
334287 966741 525
376062 298857 441
509699 366773 449
187566 520740 470
551192 460855 470
278328 806999 509
465060 25376 449
684624 961028 525
644850 581292 509
971153 489537 525
900262 491237 525
807726 80763 509
902570 460072 525
806623 625702 509
931457 428825 525
87636 712184 509
385536 770044 509
860778 458631 525
945172 409841 525
710036 521390 509
60702 225509 386
135540 52802 354
908106 19000 525
648145 662850 429
655628 896403 525
662129 712982 504
393698 619138 470
492007 468946 413
680593 444017 509
656458 64917 509
999312 325272 525
245907 856929 525
482893 923867 525
479227 880413 525
377457 539042 470
435470 430697 387
390070 502805 449
648933 357943 509
712285 304998 509
342401 957155 525
700534 973667 525
53772 179872 383
344743 930271 525
149509 932979 525
109369 949933 525
707874 682332 504
831441 165286 509
478561 31372 449
728494 431789 509
551370 50167 470
332509 654041 509
451589 432455 400
332287 419068 449
20685 265408 443
939474 393475 525
813283 516252 509
899999 454102 525
847706 158003 525
49443 534844 470
341178 373101 441
910532 684379 525
233448 679551 509
662544 928800 525
89647 624403 470
166299 642759 509
868020 146292 525
625167 955254 525
998617 387858 525
888380 712614 525
373188 879233 525
828848 463231 509
721428 415742 509
975170 191423 525
764286 918714 525
183576 414376 449
196116 966458 525
920204 67659 525
978860 751759 525
333034 490989 449
315452 472244 449
597626 237097 470
366938 198534 443
996152 446201 525
454491 73584 449
989251 88665 525
749924 309781 509
113773 553945 470
698638 876939 525
358025 940511 525
616300 973728 525
157100 110126 383
82396 191461 383
321670 731201 509
341549 663518 509
62915 139254 354
886229 628959 525
812869 363378 509
890347 90555 525
59173 725550 509
975431 578738 525
776341 282827 509
104882 971364 525
688259 291197 509
995285 790191 525
990556 272209 525
784560 469206 509
960486 50820 525
802351 107844 509
505442 377146 449
326276 457921 449
670245 39424 509
585466 642160 509
490725 260379 449
3983 103439 351
742070 268359 509
689324 542331 509
224031 494803 449
882624 3869 525
68978 460729 449
891620 161896 525
636260 811614 504
506400 850403 525
920416 181271 525
260112 438734 449
159279 31411 383
588255 617731 447
298481 227508 443
806800 5441 509
609854 775375 509
187037 708536 509
199069 910681 525
206472 725198 509
317920 787862 509
160951 441403 449
504480 832127 509
239183 417143 449
301350 148266 443
117883 418051 449
173907 959370 525
536145 842503 525
154918 64736 375
796996 556340 509
447013 747705 509
344458 600141 470
890909 441906 525
185518 59654 383
580984 446645 470
209787 114971 383
680063 859648 525
769409 454159 509
93262 53133 351
365105 838242 525
132677 406661 443
361848 432948 449
590889 258860 470
433716 308415 449
459266 271195 449
803361 657395 504
261886 104306 443
651876 166297 509
260584 710389 509
614685 602325 403
472946 999512 525
903749 310952 525
880853 792542 525
67848 17958 340
882675 410344 525
779603 555102 509
72703 983904 525
800576 529688 509
396833 998572 525
505035 645035 509
699725 810702 504
885196 831503 525
530183 861149 525
618797 927019 525
139370 478431 449
631404 266693 509
402358 146285 443
18767 106202 351
95227 502871 449
866803 981539 507
889372 765408 525
975282 864362 507
456148 49708 449
456773 587766 470
619222 655325 509
537962 837217 509
475710 229850 449
917045 202056 525
986764 429755 525
124043 829028 509
37975 701856 509
140143 166464 383
491081 228191 449
137177 186009 383
41123 304739 443
156028 653119 509
567939 466422 470
204757 486118 449
274141 631293 509
5544 56458 340
825946 425593 509
89468 991651 525
244199 904647 525
52305 323712 443
823434 528906 509
539314 334623 470
115598 999133 525
819223 362268 509
471267 342660 449
617513 749265 509
981515 333428 525
596953 560215 434
838422 187512 525
188029 927657 525
252249 172656 443
805715 340491 509
110360 931026 525
837726 731176 468
310418 218368 443
71169 178284 383
117750 23531 354
301466 283426 389
54219 950683 525
495251 926083 525
398271 135963 443
593953 995868 525
530014 624811 452
380736 954126 525
432961 533684 470
684108 308652 509
907184 140811 525
167664 170788 334
991757 975710 427
949664 356739 525
676556 733593 504
93292 188600 383
652507 609932 509
199104 320976 443
31994 459280 449
431698 314404 449
931567 694660 525
8339 222759 386
536745 474100 470
65421 889540 525
