563150 253108
5128 76088
82939 9949
173463 431050
793091 327907
603376 715893
134221 376388
2120 52570
903895 784113
957820 999380
573714 293977
389535 876078
834613 640389
681587 432393
979375 618533
249287 459133
46594 301606
213722 163059
440051 659545
134982 906416
677393 118915
976888 70266
745888 726460
710754 150098
595735 130519
48806 201106
497746 898918
667084 639105
416347 776260
623139 270681
966571 831380
673966 373187
766076 790822
242335 824294
524055 975199
832857 409475
762136 651932
535641 505204
16969 328193
675204 539897
166015 101308
602022 943303
710606 385148
394063 769869
397578 5978
350337 431910
168353 142855
264447 40947
218703 534015
561027 686468
550526 155811
850015 694591
378362 183480
564078 969375
73472 19771
354647 787337
998492 934225
934624 999990
456820 577563
313967 188419
45950 95399
705012 314766
326111 471711
665829 993815
72562 64073
561504 59346
719782 946129
85092 813646
982351 344707
799043 55625
996815 761475
281460 434809
448825 296420
944348 696743
722130 197218
12402 340090
120155 444753
881709 34780
922966 633333
927087 471440
612626 679334
79023 743823
288268 636335
636245 876315
255250 783169
549082 719472
984214 545331
95510 634276
309277 232981
555197 797987
764192 648004
974322 682729
671983 431820
184862 278868
872982 476550
11425 485860
486434 956432
90033 222414
281218 702708
848138 156257
933165 572070
72689 89133
217622 326376
844813 479592
909344 612193
416819 569821
979092 561607
402019 649751
873766 340945
833508 563956
188556 356955
807190 902738
209107 282129
498873 77082
737449 316800
710966 387654
238788 668194
658066 922362
602518 692382
636417 554852
405115 830367
625349 890609
607681 195320
645234 820408
82622 625144
714262 834730
927680 624890
213514 140214
133095 43698
140605 678384
971114 915175
163924 570741
253204 977799
113991 906634
893398 975969
941808 573032
174498 564439
8054 543008
717825 330405
939814 131586
421619 243839
553648 414825
177585 576392
380724 262382
634273 322621
761729 409012
962508 877371
551630 600088
242724 456393
183901 121487
616474 494390
763798 580629
596531 43344
632109 589413
795214 22395
848724 196690
911009 312136
977062 419820
853802 316499
114871 84146
396295 545227
647943 608419
459716 679901
704199 646843
566509 64924
355337 61674
811603 323548
999223 997295
666730 948652
151519 666807
355785 939061
472486 491100
875630 605562
983557 968310
315971 223510
932160 489732
576484 6066
819842 446428
406509 436837
652729 956875
604472 418571
970772 289100
697615 100709
352817 179813
264305 960366
211855 195712
151668 174718
91290 408877
388618 637638
786398 387053
93848 739636
740261 590174
760836 19397
600966 827291
6721 231769
852427 699785
592029 172000
690722 598334
807733 169703
883811 240324
235238 125510
335309 232400
328151 381562
535422 175801
757933 845653
501049 413236
916752 242424
774676 878168
392707 281355
450380 636701
878903 201507
294376 296291
281083 964834
685602 627470
863189 929903
442063 307199
939121 146230
669742 288364
821501 989733
86396 607116
85549 57634
131557 328460
821297 25629
128749 244944
73150 584077
115709 140147
996858 328380
434323 367528
445852 633647
672863 557414
463454 948287
