553832 492699 470
331565 649397 509
379274 577368 470
597435 643441 509
59853 86385 351
37184 414245 449
615621 171755 470
857549 16221 525
746883 70136 509
919622 180443 525
575283 117070 470
162934 977425 525
704354 827261 504
920302 515361 525
745824 404085 509
218503 1020 386
481734 856932 525
351657 305068 441
657698 640874 429
777006 562741 509
56023 658400 509
698281 677916 442
670982 405065 509
129773 122472 331
853307 116919 525
437847 580639 470
622578 578365 447
453822 96457 449
263656 849140 525
903483 966619 507
571981 594351 434
664907 938161 525
596418 439003 470
723722 512220 509
192804 574344 470
821339 893556 525
809535 831227 450
749922 352943 509
582144 814641 509
240325 894926 525
413016 91865 449
75912 845162 525
757569 824857 468
842308 324456 525
124614 528623 470
342247 643740 509
361827 189929 443
290906 841963 525
987261 785160 525
530012 997689 525
413178 223895 449
83483 987412 525
610713 531003 452
998926 383892 525
706024 162949 509
468746 338387 449
23074 468916 449
245000 78613 443
763641 604219 509
814888 529319 509
160392 141766 383
436303 806889 509
245296 530267 470
818930 727239 468
378177 605518 470
266879 985769 525
810270 465778 509
982250 991299 427
887316 641531 525
735960 429398 509
90123 766229 509
349291 844516 525
339326 329312 366
544965 159263 470
454285 299713 449
900645 312467 525
34477 147930 375
775412 68657 509
730503 426442 509
787479 179595 509
445566 303023 449
3997 705968 509
22256 656475 509
775921 20364 509
436674 888358 525
223387 448193 449
924470 470992 525
662837 207292 509
88557 612758 470
304238 741140 509
388242 364306 423
423319 992862 525
500955 896225 525
737616 859 509
668710 298050 509
947162 595513 525
889381 27712 525
642809 393514 509
607087 842387 525
398562 256932 441
962618 684326 525
33835 430484 449
720539 775271 468
443649 51029 449
397037 299051 441
756046 875776 525
857554 838417 419
644555 660769 429
453202 878633 525
606660 169534 470
779490 825357 468
982893 189804 525
847912 189134 525
725478 905486 525
890042 899762 370
602227 488310 470
200773 985653 525
225605 34777 386
891098 999611 507
16386 736995 509
257449 127477 443
639193 503452 509
710656 449005 509
872611 207382 525
591425 454472 470
583939 926948 525
775730 755602 468
946499 753995 525
880534 293256 525
612431 885124 525
625735 240802 470
385211 781142 509
652198 318580 509
334955 511560 449
679215 613952 509
407191 241200 441
480063 969213 525
134330 256414 443
20083 534838 470
236005 15938 443
626904 2050 509
242523 477168 449
405573 326683 441
928636 691368 525
522714 154165 470
690188 418989 509
369955 674632 509
585494 57595 470
978140 673395 525
279403 548265 470
492596 459674 444
321847 346710 441
449862 921330 525
721823 717154 411
5299 208742 383
745565 648794 504
169399 447400 449
475371 347555 449
237110 628054 509
125546 946869 525
872689 122382 525
977041 831573 525
561856 691906 509
248151 301692 407
184889 25078 383
851268 155765 525
298139 16240 443
926630 995960 507
580047 882922 525
213433 999549 525
488821 64644 449
346270 505064 449
727974 185121 509
390409 398763 405
290173 722311 509
962416 261860 525
978338 562126 525
179647 656296 509
717596 998657 525
179645 640105 509
99121 336332 443
73562 277225 443
388707 510992 449
275751 261536 407
463808 773234 509
824534 574540 509
605429 809958 509
501568 438243 444
163234 89702 383
788031 876791 525
78166 9818 351
316555 184745 443
228346 545201 470
200752 65385 383
959960 669640 525
423472 61532 449
103365 339564 443
802173 746812 468
657835 129701 509
295340 899297 525
552625 332291 470
19251 111486 354
930578 576469 525
128899 567854 470
356169 47314 443
435235 331682 449
563322 480183 470
830164 663402 504
399538 94429 443
90012 247535 443
677626 912342 525
678374 721034 504
682614 68397 509
793869 423753 509
131044 746756 509
89110 142666 375
611489 928354 525
930081 266842 525
232790 446237 449
3587 446371 449
879039 473038 525
517707 622825 452
835085 709967 468
83113 599895 470
947089 27447 525
827532 887180 525
510393 53690 449
477219 247341 449
736875 235754 509
978285 703167 525
930955 165796 525
621569 830081 509
851600 281681 525
807132 460662 509
784170 847419 525
778985 773229 437
90179 435095 449
152261 466469 449
969580 646968 525
797010 535331 509
174509 656274 509
653468 81681 509
963194 239462 525
918367 63104 525
527177 633981 509
100810 866058 525
807165 357678 509
484909 899149 525
238751 131356 443
52119 453072 449
613092 421085 470
315525 16747 443
