553832 492699
331565 649397
379274 577368
597435 643441
59853 86385
37184 414245
615621 171755
857549 16221
746883 70136
919622 180443
575283 117070
162934 977425
704354 827261
920302 515361
745824 404085
218503 1020
481734 856932
351657 305068
657698 640874
777006 562741
56023 658400
698281 677916
670982 405065
129773 122472
853307 116919
437847 580639
622578 578365
453822 96457
263656 849140
903483 966619
571981 594351
664907 938161
596418 439003
723722 512220
192804 574344
821339 893556
809535 831227
749922 352943
582144 814641
240325 894926
413016 91865
75912 845162
757569 824857
842308 324456
124614 528623
342247 643740
361827 189929
290906 841963
987261 785160
530012 997689
413178 223895
83483 987412
610713 531003
998926 383892
706024 162949
468746 338387
23074 468916
245000 78613
763641 604219
814888 529319
160392 141766
436303 806889
245296 530267
818930 727239
378177 605518
266879 985769
810270 465778
982250 991299
887316 641531
735960 429398
90123 766229
349291 844516
339326 329312
544965 159263
454285 299713
900645 312467
34477 147930
775412 68657
730503 426442
787479 179595
445566 303023
3997 705968
22256 656475
775921 20364
436674 888358
223387 448193
924470 470992
662837 207292
88557 612758
304238 741140
388242 364306
423319 992862
500955 896225
737616 859
668710 298050
947162 595513
889381 27712
642809 393514
607087 842387
398562 256932
962618 684326
33835 430484
720539 775271
443649 51029
397037 299051
756046 875776
857554 838417
644555 660769
453202 878633
606660 169534
779490 825357
982893 189804
847912 189134
725478 905486
890042 899762
602227 488310
200773 985653
225605 34777
891098 999611
16386 736995
257449 127477
639193 503452
710656 449005
872611 207382
591425 454472
583939 926948
775730 755602
946499 753995
880534 293256
612431 885124
625735 240802
385211 781142
652198 318580
334955 511560
679215 613952
407191 241200
480063 969213
134330 256414
20083 534838
236005 15938
626904 2050
242523 477168
405573 326683
928636 691368
522714 154165
690188 418989
369955 674632
585494 57595
978140 673395
279403 548265
492596 459674
321847 346710
449862 921330
721823 717154
5299 208742
745565 648794
169399 447400
475371 347555
237110 628054
125546 946869
872689 122382
977041 831573
561856 691906
248151 301692
184889 25078
851268 155765
298139 16240
926630 995960
580047 882922
213433 999549
488821 64644
346270 505064
727974 185121
390409 398763
290173 722311
962416 261860
978338 562126
179647 656296
717596 998657
179645 640105
99121 336332
73562 277225
388707 510992
275751 261536
463808 773234
824534 574540
605429 809958
501568 438243
163234 89702
788031 876791
78166 9818
316555 184745
228346 545201
200752 65385
959960 669640
423472 61532
103365 339564
802173 746812
657835 129701
295340 899297
552625 332291
19251 111486
930578 576469
128899 567854
356169 47314
435235 331682
563322 480183
830164 663402
399538 94429
90012 247535
677626 912342
678374 721034
682614 68397
793869 423753
131044 746756
89110 142666
611489 928354
930081 266842
232790 446237
3587 446371
879039 473038
517707 622825
835085 709967
83113 599895
947089 27447
827532 887180
510393 53690
477219 247341
736875 235754
978285 703167
930955 165796
621569 830081
851600 281681
807132 460662
784170 847419
778985 773229
90179 435095
152261 466469
969580 646968
797010 535331
174509 656274
653468 81681
963194 239462
918367 63104
527177 633981
100810 866058
807165 357678
484909 899149
238751 131356
52119 453072
613092 421085
315525 16747
