966112 230433 525
585558 530763 452
101606 863530 525
726487 407166 509
598586 891853 525
655754 308399 509
18586 951670 525
483151 543078 470
274790 575488 470
298412 457202 449
511140 893856 525
539513 918076 525
591829 414760 470
570310 571534 377
449977 395221 449
853446 594143 525
623981 208155 470
322131 137811 443
980183 266689 525
287554 434250 449
73424 695613 509
979050 895522 507
719436 17354 509
671378 488023 509
819522 269676 509
183120 32651 383
787610 819560 468
388691 365827 423
522743 484305 470
984201 243900 525
331567 481363 449
10539 632777 509
207489 551494 470
774582 100327 509
708420 202033 509
327271 695567 509
856693 227548 525
182335 401922 443
72407 914087 525
964728 201846 525
753752 848223 525
207883 446114 449
498880 162662 449
194277 278122 443
331767 686877 509
876197 570510 525
288142 214160 443
758104 321033 509
568260 527417 452
705580 414017 509
300265 986391 525
29979 990471 525
347278 101906 443
950790 398591 525
639720 682617 442
762839 8829 509
410259 549920 470
908700 188728 525
415459 232952 449
983469 28553 525
551794 63995 470
574758 907934 525
206091 185101 360
850612 966593 507
522308 929077 525
346884 479700 449
394001 753209 509
960975 478233 525
216383 985127 525
926756 739634 525
534887 441337 470
686275 367176 509
688663 376948 509
741089 934010 525
524527 692363 509
700473 282301 509
88485 994550 525
35405 872697 525
232824 558055 470
587688 403844 470
145093 94743 375
23740 121880 354
812259 917772 525
550333 37360 470
81858 898282 525
513538 105348 470
637402 607589 509
725380 370335 509
297913 974710 525
919576 286890 525
455584 598959 470
444000 363062 449
933634 899566 476
902015 647651 525
355540 526240 470
434121 229629 449
577743 438180 470
406475 614844 470
784580 290250 509
921847 149440 525
726710 319407 509
244036 16465 443
925485 105067 525
205738 229310 386
473271 252946 449
498028 788200 509
280698 85459 443
391539 265587 441
774914 192470 509
154565 650302 509
996399 972529 427
577441 535863 452
165377 998877 525
41249 679101 509
212612 804837 509
768618 365032 509
939796 142128 525
862288 788035 525
793003 937990 525
942334 228191 525
324840 349835 441
871603 243115 525
196412 31201 383
567422 606961 434
88274 981154 525
55367 994688 525
834862 418674 509
747449 269320 509
561190 642437 509
53449 678330 509
120614 379023 443
500020 665919 509
355331 867339 525
784773 4511 509
936696 968849 507
215062 411269 449
438154 186622 449
737093 138274 509
627996 850787 525
46091 486847 449
319634 685334 509
603943 782215 509
413611 151368 449
609531 793229 509
539240 997090 525
795172 209496 509
844593 167004 525
880546 335782 525
514847 390936 470
887968 118812 525
23958 708195 509
183985 87081 383
431136 734592 509
902220 423729 525
371362 976769 525
562170 36983 470
313023 703621 509
382089 801168 509
664755 189313 509
759098 372402 509
84155 929483 525
912977 552841 525
15134 942860 525
890348 932968 476
504546 254772 449
954359 773383 525
417974 164403 449
54244 903846 525
748541 195761 509
216345 172907 373
845165 387396 525
821507 186964 509
508748 425072 444
347697 859991 525
465973 309919 449
475747 524072 470
945411 411973 525
921755 126122 525
838247 706630 525
913956 222047 525
232130 251753 381
897999 711977 525
972888 541720 525
490928 470340 413
937878 503139 525
82667 142490 354
373929 441921 449
805380 103906 509
527110 244882 470
216547 855293 525
189780 663292 509
712162 827975 468
516481 745308 509
583041 32767 470
416686 32865 449
709612 30204 509
266782 145202 443
867568 255112 525
778451 404159 509
481672 57045 449
937309 479667 525
390012 736442 509
647078 133295 509
271201 890446 525
239547 104296 443
629625 549969 509
888837 304770 525
448249 739682 509
80060 137410 354
983265 821153 525
502819 812363 509
780155 404469 509
713917 773741 468
29515 903455 525
819801 755126 468
221677 805675 509
141954 989177 525
895794 843106 445
392494 531179 470
739772 586024 509
356462 518067 470
281116 744945 509
251587 370574 441
270310 891557 525
936740 132937 525
731833 626557 504
390524 49530 443
603675 991312 525
935691 439299 525
4274 623725 470
454530 510284 444
341522 879621 525
558964 475680 470
996844 122905 525
485630 363499 449
338525 362810 441
188731 673078 509
486130 833107 509
187289 666712 509
295406 13268 443
511338 307914 449
373547 669610 509
436170 758304 509
580918 553275 421
327776 938651 525
51151 590165 470
648074 995800 525
678033 267171 509
369100 715109 509
